{
    "group": {
        "hosts": [
            "192.168.28.71",
            "192.168.28.72"
        ],
        "vars": {
            "ansible_ssh_user": "vagrant",
            "ansible_ssh_private_key_file": "~/.vagrant.d/insecure_private_key",
            "example_variable": "value"
        }
    },
    "_meta": {
        "hostvars": {
            "192.168.28.71": {
                "host_specific_var": "bar"
            },
            "192.168.28.72": {
                "host_specific_var": "foo"
            }
        }
    }
}
